{
    "fluentMethods": true,
    "relationships": [
        {
            "relationshipType": "one-to-many",
            "relationshipName": "region",
            "otherEntityName": "region",
            "otherEntityRelationshipName": "country"
        }
    ],
    "fields": [
        {
            "fieldName": "code",
            "fieldType": "String",
            "fieldValidateRules": [
                "maxlength",
                "required"
            ],
            "fieldValidateRulesMaxlength": 10
        },
        {
            "fieldName": "name",
            "fieldType": "String",
            "fieldValidateRules": [
                "maxlength",
                "required"
            ],
            "fieldValidateRulesMaxlength": 255
        },
        {
            "fieldName": "imageFlagPath",
            "fieldType": "String",
            "fieldValidateRules": [
                "maxlength"
            ],
            "fieldValidateRulesMaxlength": 255
        }
    ],
    "changelogDate": "20171224234122",
    "entityTableName": "country",
    "dto": "no",
    "pagination": "no",
    "service": "no",
    "jpaMetamodelFiltering": false
}